%!PS-Adobe-3.0
%%Creator: graphviz version 2.36.0 (20140111.2315)
%%Title: G
%%Pages: (atend)
%%BoundingBox: (atend)
%%EndComments
save
%%BeginProlog
/DotDict 200 dict def
DotDict begin

/setupLatin1 {
mark
/EncodingVector 256 array def
 EncodingVector 0

ISOLatin1Encoding 0 255 getinterval putinterval
EncodingVector 45 /hyphen put

% Set up ISO Latin 1 character encoding
/starnetISO {
        dup dup findfont dup length dict begin
        { 1 index /FID ne { def }{ pop pop } ifelse
        } forall
        /Encoding EncodingVector def
        currentdict end definefont
} def
/Times-Roman starnetISO def
/Times-Italic starnetISO def
/Times-Bold starnetISO def
/Times-BoldItalic starnetISO def
/Helvetica starnetISO def
/Helvetica-Oblique starnetISO def
/Helvetica-Bold starnetISO def
/Helvetica-BoldOblique starnetISO def
/Courier starnetISO def
/Courier-Oblique starnetISO def
/Courier-Bold starnetISO def
/Courier-BoldOblique starnetISO def
cleartomark
} bind def

%%BeginResource: procset graphviz 0 0
/coord-font-family /Times-Roman def
/default-font-family /Times-Roman def
/coordfont coord-font-family findfont 8 scalefont def

/InvScaleFactor 1.0 def
/set_scale {
       dup 1 exch div /InvScaleFactor exch def
       scale
} bind def

% styles
/solid { [] 0 setdash } bind def
/dashed { [9 InvScaleFactor mul dup ] 0 setdash } bind def
/dotted { [1 InvScaleFactor mul 6 InvScaleFactor mul] 0 setdash } bind def
/invis {/fill {newpath} def /stroke {newpath} def /show {pop newpath} def} bind def
/bold { 2 setlinewidth } bind def
/filled { } bind def
/unfilled { } bind def
/rounded { } bind def
/diagonals { } bind def
/tapered { } bind def

% hooks for setting color 
/nodecolor { sethsbcolor } bind def
/edgecolor { sethsbcolor } bind def
/graphcolor { sethsbcolor } bind def
/nopcolor {pop pop pop} bind def

/beginpage {	% i j npages
	/npages exch def
	/j exch def
	/i exch def
	/str 10 string def
	npages 1 gt {
		gsave
			coordfont setfont
			0 0 moveto
			(\() show i str cvs show (,) show j str cvs show (\)) show
		grestore
	} if
} bind def

/set_font {
	findfont exch
	scalefont setfont
} def

% draw text fitted to its expected width
/alignedtext {			% width text
	/text exch def
	/width exch def
	gsave
		width 0 gt {
			[] 0 setdash
			text stringwidth pop width exch sub text length div 0 text ashow
		} if
	grestore
} def

/boxprim {				% xcorner ycorner xsize ysize
		4 2 roll
		moveto
		2 copy
		exch 0 rlineto
		0 exch rlineto
		pop neg 0 rlineto
		closepath
} bind def

/ellipse_path {
	/ry exch def
	/rx exch def
	/y exch def
	/x exch def
	matrix currentmatrix
	newpath
	x y translate
	rx ry scale
	0 0 1 0 360 arc
	setmatrix
} bind def

/endpage { showpage } bind def
/showpage { } def

/layercolorseq
	[	% layer color sequence - darkest to lightest
		[0 0 0]
		[.2 .8 .8]
		[.4 .8 .8]
		[.6 .8 .8]
		[.8 .8 .8]
	]
def

/layerlen layercolorseq length def

/setlayer {/maxlayer exch def /curlayer exch def
	layercolorseq curlayer 1 sub layerlen mod get
	aload pop sethsbcolor
	/nodecolor {nopcolor} def
	/edgecolor {nopcolor} def
	/graphcolor {nopcolor} def
} bind def

/onlayer { curlayer ne {invis} if } def

/onlayers {
	/myupper exch def
	/mylower exch def
	curlayer mylower lt
	curlayer myupper gt
	or
	{invis} if
} def

/curlayer 0 def

%%EndResource
%%EndProlog
%%BeginSetup
14 default-font-family set_font
1 setmiterlimit
% /arrowlength 10 def
% /arrowwidth 5 def

% make sure pdfmark is harmless for PS-interpreters other than Distiller
/pdfmark where {pop} {userdict /pdfmark /cleartomark load put} ifelse
% make '<<' and '>>' safe on PS Level 1 devices
/languagelevel where {pop languagelevel}{1} ifelse
2 lt {
    userdict (<<) cvn ([) cvn load put
    userdict (>>) cvn ([) cvn load put
} if

%%EndSetup
setupLatin1
%%Page: 1 1
%%PageBoundingBox: 36 36 267 784
%%PageOrientation: Landscape
0 0 1 beginpage
gsave
36 36 231 748 boxprim clip newpath
1 1 set_scale 90 rotate 40 -263 translate
% node0
gsave
1 setlinewidth
0 0 0 nodecolor
newpath .25 0 moveto
.25 216 lineto
19.75 216 lineto
19.75 0 lineto
closepath stroke
0 0 0 nodecolor
14 /Times-Roman set_font
8.25 196.8 moveto 3.5 ( ) alignedtext
1 setlinewidth
0 0 0 nodecolor
newpath .25 186 moveto
19.75 186 lineto
stroke
0 0 0 nodecolor
14 /Times-Roman set_font
8.25 166.3 moveto 3.5 ( ) alignedtext
1 setlinewidth
0 0 0 nodecolor
newpath .25 155 moveto
19.75 155 lineto
stroke
0 0 0 nodecolor
14 /Times-Roman set_font
8.25 135.3 moveto 3.5 ( ) alignedtext
1 setlinewidth
0 0 0 nodecolor
newpath .25 124 moveto
19.75 124 lineto
stroke
0 0 0 nodecolor
14 /Times-Roman set_font
8.25 104.3 moveto 3.5 ( ) alignedtext
1 setlinewidth
0 0 0 nodecolor
newpath .25 93 moveto
19.75 93 lineto
stroke
0 0 0 nodecolor
14 /Times-Roman set_font
8.25 73.3 moveto 3.5 ( ) alignedtext
1 setlinewidth
0 0 0 nodecolor
newpath .25 62 moveto
19.75 62 lineto
stroke
0 0 0 nodecolor
14 /Times-Roman set_font
8.25 42.3 moveto 3.5 ( ) alignedtext
1 setlinewidth
0 0 0 nodecolor
newpath .25 31 moveto
19.75 31 lineto
stroke
0 0 0 nodecolor
14 /Times-Roman set_font
8.25 11.3 moveto 3.5 ( ) alignedtext
grestore
% node1
gsave
1 setlinewidth
0 0 0 nodecolor
newpath 56 201 moveto
56 223 lineto
200 223 lineto
200 201 lineto
closepath stroke
0 0 0 nodecolor
14 /Times-Roman set_font
73.5 207.8 moveto 11.66 (r0) alignedtext
1 setlinewidth
0 0 0 nodecolor
newpath 102.66 201 moveto
102.66 223 lineto
stroke
0 0 0 nodecolor
14 /Times-Roman set_font
120.66 207.8 moveto 21 (123) alignedtext
1 setlinewidth
0 0 0 nodecolor
newpath 159.66 201 moveto
159.66 223 lineto
stroke
0 0 0 nodecolor
14 /Times-Roman set_font
177.66 207.8 moveto 3.5 ( ) alignedtext
grestore
% node0->node1
gsave
1 setlinewidth
0 0 0 edgecolor
newpath 20 201 moveto
32.68 201 37.21 207.32 45.94 210.38 curveto
stroke
0 0 0 edgecolor
newpath 45.57 213.86 moveto
56 212 lineto
46.69 206.95 lineto
closepath fill
1 setlinewidth
solid
0 0 0 edgecolor
newpath 45.57 213.86 moveto
56 212 lineto
46.69 206.95 lineto
closepath stroke
grestore
% node2
gsave
1 setlinewidth
0 0 0 nodecolor
newpath 56 160 moveto
56 182 lineto
200 182 lineto
200 160 lineto
closepath stroke
0 0 0 nodecolor
14 /Times-Roman set_font
73.5 166.8 moveto 18.66 (r10) alignedtext
1 setlinewidth
0 0 0 nodecolor
newpath 109.66 160 moveto
109.66 182 lineto
stroke
0 0 0 nodecolor
14 /Times-Roman set_font
127.66 166.8 moveto 14 (13) alignedtext
1 setlinewidth
0 0 0 nodecolor
newpath 159.66 160 moveto
159.66 182 lineto
stroke
0 0 0 nodecolor
14 /Times-Roman set_font
177.66 166.8 moveto 3.5 ( ) alignedtext
grestore
% node0->node2
gsave
1 setlinewidth
0 0 0 edgecolor
newpath 20 171 moveto
32 171 37.25 171 45.88 171 curveto
stroke
0 0 0 edgecolor
newpath 46 174.5 moveto
56 171 lineto
46 167.5 lineto
closepath fill
1 setlinewidth
solid
0 0 0 edgecolor
newpath 46 174.5 moveto
56 171 lineto
46 167.5 lineto
closepath stroke
grestore
% node6
gsave
1 setlinewidth
0 0 0 nodecolor
newpath 56 119 moveto
56 141 lineto
200 141 lineto
200 119 lineto
closepath stroke
0 0 0 nodecolor
14 /Times-Roman set_font
72.5 125.8 moveto 18.66 (r20) alignedtext
1 setlinewidth
0 0 0 nodecolor
newpath 107.66 119 moveto
107.66 141 lineto
stroke
0 0 0 nodecolor
14 /Times-Roman set_font
124.66 125.8 moveto 21 (123) alignedtext
1 setlinewidth
0 0 0 nodecolor
newpath 162.66 119 moveto
162.66 141 lineto
stroke
0 0 0 nodecolor
14 /Times-Roman set_font
179.16 125.8 moveto 3.5 ( ) alignedtext
grestore
% node0->node6
gsave
1 setlinewidth
0 0 0 edgecolor
newpath 20 140 moveto
32.58 140 37.23 134.26 45.97 131.48 curveto
stroke
0 0 0 edgecolor
newpath 46.62 134.92 moveto
56 130 lineto
45.6 127.99 lineto
closepath fill
1 setlinewidth
solid
0 0 0 edgecolor
newpath 46.62 134.92 moveto
56 130 lineto
45.6 127.99 lineto
closepath stroke
grestore
% node7
gsave
1 setlinewidth
0 0 0 nodecolor
newpath 56 66 moveto
56 88 lineto
200 88 lineto
200 66 lineto
closepath stroke
0 0 0 nodecolor
14 /Times-Roman set_font
72.5 72.8 moveto 18.66 (r40) alignedtext
1 setlinewidth
0 0 0 nodecolor
newpath 107.66 66 moveto
107.66 88 lineto
stroke
0 0 0 nodecolor
14 /Times-Roman set_font
124.66 72.8 moveto 21 (b23) alignedtext
1 setlinewidth
0 0 0 nodecolor
newpath 162.66 66 moveto
162.66 88 lineto
stroke
0 0 0 nodecolor
14 /Times-Roman set_font
179.16 72.8 moveto 3.5 ( ) alignedtext
grestore
% node0->node7
gsave
1 setlinewidth
0 0 0 edgecolor
newpath 20 77 moveto
32 77 37.25 77 45.88 77 curveto
stroke
0 0 0 edgecolor
newpath 46 80.5 moveto
56 77 lineto
46 73.5 lineto
closepath fill
1 setlinewidth
solid
0 0 0 edgecolor
newpath 46 80.5 moveto
56 77 lineto
46 73.5 lineto
closepath stroke
grestore
% node3
gsave
1 setlinewidth
0 0 0 nodecolor
newpath 236 160 moveto
236 182 lineto
380 182 lineto
380 160 lineto
closepath stroke
0 0 0 nodecolor
14 /Times-Roman set_font
254 166.8 moveto 18.15 (r11) alignedtext
1 setlinewidth
0 0 0 nodecolor
newpath 290.15 160 moveto
290.15 182 lineto
stroke
0 0 0 nodecolor
14 /Times-Roman set_font
308.15 166.8 moveto 14 (23) alignedtext
1 setlinewidth
0 0 0 nodecolor
newpath 340.15 160 moveto
340.15 182 lineto
stroke
0 0 0 nodecolor
14 /Times-Roman set_font
358.15 166.8 moveto 3.5 ( ) alignedtext
grestore
% node2->node3
gsave
1 setlinewidth
0 0 0 edgecolor
newpath 200 171 moveto
212 171 217.25 171 225.88 171 curveto
stroke
0 0 0 edgecolor
newpath 226 174.5 moveto
236 171 lineto
226 167.5 lineto
closepath fill
1 setlinewidth
solid
0 0 0 edgecolor
newpath 226 174.5 moveto
236 171 lineto
226 167.5 lineto
closepath stroke
grestore
% node4
gsave
1 setlinewidth
0 0 0 nodecolor
newpath 416 160 moveto
416 182 lineto
560 182 lineto
560 160 lineto
closepath stroke
0 0 0 nodecolor
14 /Times-Roman set_font
432.5 166.8 moveto 18.66 (r12) alignedtext
1 setlinewidth
0 0 0 nodecolor
newpath 467.66 160 moveto
467.66 182 lineto
stroke
0 0 0 nodecolor
14 /Times-Roman set_font
484.66 166.8 moveto 21 (326) alignedtext
1 setlinewidth
0 0 0 nodecolor
newpath 522.66 160 moveto
522.66 182 lineto
stroke
0 0 0 nodecolor
14 /Times-Roman set_font
539.16 166.8 moveto 3.5 ( ) alignedtext
grestore
% node3->node4
gsave
1 setlinewidth
0 0 0 edgecolor
newpath 380 171 moveto
392 171 397.25 171 405.88 171 curveto
stroke
0 0 0 edgecolor
newpath 406 174.5 moveto
416 171 lineto
406 167.5 lineto
closepath fill
1 setlinewidth
solid
0 0 0 edgecolor
newpath 406 174.5 moveto
416 171 lineto
406 167.5 lineto
closepath stroke
grestore
% node5
gsave
1 setlinewidth
0 0 0 nodecolor
newpath 596 160 moveto
596 182 lineto
740 182 lineto
740 160 lineto
closepath stroke
0 0 0 nodecolor
14 /Times-Roman set_font
613 166.8 moveto 18.66 (r13) alignedtext
1 setlinewidth
0 0 0 nodecolor
newpath 648.66 160 moveto
648.66 182 lineto
stroke
0 0 0 nodecolor
14 /Times-Roman set_font
665.66 166.8 moveto 18.66 (1f3) alignedtext
1 setlinewidth
0 0 0 nodecolor
newpath 701.32 160 moveto
701.32 182 lineto
stroke
0 0 0 nodecolor
14 /Times-Roman set_font
718.82 166.8 moveto 3.5 ( ) alignedtext
grestore
% node4->node5
gsave
1 setlinewidth
0 0 0 edgecolor
newpath 560 171 moveto
572 171 577.25 171 585.88 171 curveto
stroke
0 0 0 edgecolor
newpath 586 174.5 moveto
596 171 lineto
586 167.5 lineto
closepath fill
1 setlinewidth
solid
0 0 0 edgecolor
newpath 586 174.5 moveto
596 171 lineto
586 167.5 lineto
closepath stroke
grestore
% node8
gsave
1 setlinewidth
0 0 0 nodecolor
newpath 236 66 moveto
236 88 lineto
380 88 lineto
380 66 lineto
closepath stroke
0 0 0 nodecolor
14 /Times-Roman set_font
253 72.8 moveto 18.66 (r41) alignedtext
1 setlinewidth
0 0 0 nodecolor
newpath 288.66 66 moveto
288.66 88 lineto
stroke
0 0 0 nodecolor
14 /Times-Roman set_font
305.66 72.8 moveto 18.66 (12f) alignedtext
1 setlinewidth
0 0 0 nodecolor
newpath 341.32 66 moveto
341.32 88 lineto
stroke
0 0 0 nodecolor
14 /Times-Roman set_font
358.82 72.8 moveto 3.5 ( ) alignedtext
grestore
% node7->node8
gsave
1 setlinewidth
0 0 0 edgecolor
newpath 200 77 moveto
212 77 217.25 77 225.88 77 curveto
stroke
0 0 0 edgecolor
newpath 226 80.5 moveto
236 77 lineto
226 73.5 lineto
closepath fill
1 setlinewidth
solid
0 0 0 edgecolor
newpath 226 80.5 moveto
236 77 lineto
226 73.5 lineto
closepath stroke
grestore
% node9
gsave
1 setlinewidth
0 0 0 nodecolor
newpath 416 66 moveto
416 88 lineto
560 88 lineto
560 66 lineto
closepath stroke
0 0 0 nodecolor
14 /Times-Roman set_font
432.5 72.8 moveto 18.66 (r42) alignedtext
1 setlinewidth
0 0 0 nodecolor
newpath 467.66 66 moveto
467.66 88 lineto
stroke
0 0 0 nodecolor
14 /Times-Roman set_font
484.66 72.8 moveto 21 (1d3) alignedtext
1 setlinewidth
0 0 0 nodecolor
newpath 522.66 66 moveto
522.66 88 lineto
stroke
0 0 0 nodecolor
14 /Times-Roman set_font
539.16 72.8 moveto 3.5 ( ) alignedtext
grestore
% node8->node9
gsave
1 setlinewidth
0 0 0 edgecolor
newpath 380 77 moveto
392 77 397.25 77 405.88 77 curveto
stroke
0 0 0 edgecolor
newpath 406 80.5 moveto
416 77 lineto
406 73.5 lineto
closepath fill
1 setlinewidth
solid
0 0 0 edgecolor
newpath 406 80.5 moveto
416 77 lineto
406 73.5 lineto
closepath stroke
grestore
endpage
showpage
grestore
%%PageTrailer
%%EndPage: 1
%%Trailer
%%Pages: 1
%%BoundingBox: 36 36 267 784
end
restore
%%EOF
